<svg width="18" height="18" viewBox="0 0 18 18" fill="none" xmlns="http://www.w3.org/2000/svg">
<path d="M11.0869 11.0869L17 17" stroke="#929AAE" stroke-miterlimit="10" stroke-linecap="round" stroke-linejoin="round"/>
<path d="M6.91306 12.8261C10.1787 12.8261 12.8261 10.1787 12.8261 6.91305C12.8261 3.64736 10.1787 1 6.91306 1C3.64737 1 1 3.64736 1 6.91305C1 10.1787 3.64737 12.8261 6.91306 12.8261Z" stroke="#929AAE" stroke-miterlimit="10" stroke-linecap="round" stroke-linejoin="round"/>
</svg>
